veerilog_quartus/Traffic_light_verilog_project/simulation/qsim/traf_light.msim.vcd
$comment
	File created using the following command:
		vcd file traf_light.msim.vcd -direction
$end
$date
	Sun Jul 30 21:04:39 2023
$end
$version
	ModelSim Version 2020.1
$end
$timescale
	1ps
$end

$scope module traf_light_vlg_vec_tst $end
$var reg 1 ! clk $end
$var reg 1 " reset $end
$var wire 1 # East_0 $end
$var wire 1 $ East_1 $end
$var wire 1 % North_0 $end
$var wire 1 & North_1 $end
$var wire 1 ' South_0 $end
$var wire 1 ( South_1 $end
$var wire 1 ) West_0 $end
$var wire 1 * West_1 $end

$scope module i1 $end
$var wire 1 + gnd $end
$var wire 1 , vcc $end
$var wire 1 - unknown $end
$var tri1 1 . devclrn $end
$var tri1 1 / devpor $end
$var tri1 1 0 devoe $end
$var wire 1 1 clk~combout $end
$var wire 1 2 reset~combout $end
$var wire 1 3 WideOr0~0_combout $end
$var wire 1 4 reached_five~regout $end
$var wire 1 5 present_state~22_combout $end
$var wire 1 6 present_state.N_E_yellow~regout $end
$var wire 1 7 present_state.East_green~regout $end
$var wire 1 8 present_state.E_S_yellow~regout $end
$var wire 1 9 present_state.South_green~regout $end
$var wire 1 : present_state.S_W_yellow~regout $end
$var wire 1 ; present_state.West_green~regout $end
$var wire 1 < present_state.W_N_yellow~regout $end
$var wire 1 = present_state.North_green~regout $end
$var wire 1 > north_encoder|data_out [1] $end
$var wire 1 ? north_encoder|data_out [0] $end
$var wire 1 @ South_encoder|data_out [1] $end
$var wire 1 A South_encoder|data_out [0] $end
$var wire 1 B West_encoder|data_out [1] $end
$var wire 1 C West_encoder|data_out [0] $end
$var wire 1 D East_encoder|data_out [1] $end
$var wire 1 E East_encoder|data_out [0] $end
$var wire 1 F count [2] $end
$var wire 1 G count [1] $end
$var wire 1 H count [0] $end
$upscope $end
$upscope $end
$enddefinitions $end
#0
$dumpvars
0!
1"
1#
1$
1%
0&
1'
1(
1)
1*
0+
1,
x-
1.
1/
10
01
12
13
04
15
06
07
08
09
0:
0;
0<
0=
1?
0>
1A
1@
1C
1B
1E
1D
0H
0G
zF
$end
#2500
1!
11
#5000
0"
0!
02
01
05
#7500
1!
11
1H
#10000
0!
01
#12500
1!
11
1G
0H
#15000
0!
01
#17500
1!
11
1H
#20000
0!
01
#22500
1!
11
14
0G
0H
15
#25000
0!
01
#27500
1!
11
1=
16
1H
0?
1>
03
0E
0%
1&
0#
#30000
0!
01
#32500
1!
11
17
06
04
0H
1E
0D
13
1?
05
1#
0$
1%
#35000
0!
01
#37500
1!
11
1H
#40000
0!
01
#42500
1!
11
1G
0H
#45000
0!
01
#47500
1!
11
1H
#50000
0!
01
#52500
1!
11
14
0G
0H
15
#55000
0!
01
#57500
1!
11
18
07
1H
0A
0E
1D
03
0'
0#
1$
#60000
0!
01
#62500
1!
11
19
08
04
0H
1A
0@
13
1E
05
1'
0(
1#
#65000
0!
01
#67500
1!
11
1H
#70000
0!
01
#72500
1!
11
1G
0H
#75000
0!
01
#77500
1!
11
1H
#80000
0!
01
#82500
1!
11
14
0G
0H
15
#85000
0!
01
#87500
1!
11
1:
09
1H
0A
1@
0C
03
0'
1(
0)
#90000
0!
01
#92500
1!
11
1;
0:
04
0H
1C
0B
13
1A
05
1)
0*
1'
#95000
0!
01
#97500
1!
11
1H
#100000
0!
01
#102500
1!
11
1G
0H
#105000
0!
01
#107500
1!
11
1H
#110000
0!
01
#112500
1!
11
14
0G
0H
15
#115000
0!
01
#117500
1!
11
1<
0;
1H
0C
1B
0?
03
0)
1*
0%
