veerilog_quartus/detect_010_and_1001/simulation/qsim/detect_two_sequence.msim.vcd
$comment
	File created using the following command:
		vcd file detect_two_sequence.msim.vcd -direction
$end
$date
	Sun Jul 30 08:52:05 2023
$end
$version
	ModelSim Version 2020.1
$end
$timescale
	1ps
$end

$scope module detect_two_sequence_vlg_vec_tst $end
$var reg 1 ! clk $end
$var reg 1 " data_in $end
$var reg 1 # reset $end
$var wire 1 $ data_out $end

$scope module i1 $end
$var wire 1 % gnd $end
$var wire 1 & vcc $end
$var wire 1 ' unknown $end
$var tri1 1 ( devclrn $end
$var tri1 1 ) devpor $end
$var tri1 1 * devoe $end
$var wire 1 + data_out~output_o $end
$var wire 1 , clk~input_o $end
$var wire 1 - data_in~input_o $end
$var wire 1 . reset~input_o $end
$var wire 1 / present_state.s0~0_combout $end
$var wire 1 0 present_state.s0~q $end
$var wire 1 1 present_state~15_combout $end
$var wire 1 2 present_state.s1~q $end
$var wire 1 3 present_state~14_combout $end
$var wire 1 4 present_state.s3~q $end
$var wire 1 5 present_state~12_combout $end
$var wire 1 6 present_state.s2~q $end
$var wire 1 7 present_state~13_combout $end
$var wire 1 8 present_state.s4~q $end
$var wire 1 9 present_state~11_combout $end
$var wire 1 : present_state.s5~q $end
$var wire 1 ; out2~0_combout $end
$var wire 1 < out2~q $end
$var wire 1 = out1~0_combout $end
$var wire 1 > out1~q $end
$var wire 1 ? data_out~0_combout $end
$upscope $end
$upscope $end
$enddefinitions $end
#0
$dumpvars
0!
0"
1#
0$
0%
1&
x'
1(
1)
1*
0+
0,
0-
1.
0/
00
01
02
03
04
05
06
07
08
09
0:
0;
0<
0=
0>
0?
$end
#2500
1!
1,
#5000
0#
0!
0.
0,
11
1/
#7500
1!
1,
12
10
#10000
0!
0,
#12500
1!
1,
#15000
1"
0!
1-
0,
15
01
#17500
1!
1,
16
02
13
05
#20000
0"
0!
0-
0,
1=
17
03
#22500
1!
1,
1>
18
06
0=
07
19
1?
1+
1$
#25000
0!
0,
#27500
1!
1,
0>
1:
08
09
11
0?
0+
0$
#30000
1"
0!
1-
0,
1;
15
01
#32500
1!
1,
1<
0:
16
05
0;
13
1?
1+
1$
#35000
0"
0!
0-
0,
1=
17
03
#37500
1!
1,
1>
0<
18
06
0=
07
19
#40000
1"
0!
1-
0,
09
15
#42500
1!
1,
0>
08
16
05
13
0?
0+
0$
#45000
0!
0,
#47500
1!
1,
06
14
#50000
0"
0!
0-
0,
17
03
#52500
1!
1,
18
04
07
19
#55000
0!
0,
#57500
1!
1,
1:
08
09
11
#60000
1"
0!
1-
0,
1;
15
01
#62500
1!
1,
1<
0:
16
05
0;
13
1?
1+
1$
#65000
0!
0,
#67500
1!
1,
0<
06
14
0?
0+
0$
#70000
0"
0!
0-
0,
17
03
#72500
1!
1,
18
04
07
19
#75000
0!
0,
#77500
1!
1,
1:
08
09
11
#80000
0!
0,
#82500
1!
1,
0:
12
#85000
0!
0,
#87500
1!
1,
#90000
0!
0,
#92500
1!
1,
#95000
0!
0,
#97500
1!
1,
#100000
0!
0,
#102500
1!
1,
#105000
0!
0,
#107500
1!
1,
#110000
0!
0,
#112500
1!
1,
#115000
0!
0,
#117500
1!
1,
