veerilog_quartus/detect_1010_no_overlapping_moore/simulation/qsim/sequence_1010_detect.msim.vcd
$comment
	File created using the following command:
		vcd file sequence_1010_detect.msim.vcd -direction
$end
$date
	Sun Jul 30 07:20:18 2023
$end
$version
	ModelSim Version 2020.1
$end
$timescale
	1ps
$end

$scope module sequence_1010_detect_vlg_vec_tst $end
$var reg 1 ! areset $end
$var reg 1 " clk $end
$var reg 1 # data_in $end
$var wire 1 $ out $end

$scope module i1 $end
$var wire 1 % gnd $end
$var wire 1 & vcc $end
$var wire 1 ' unknown $end
$var tri1 1 ( devclrn $end
$var tri1 1 ) devpor $end
$var tri1 1 * devoe $end
$var wire 1 + out~output_o $end
$var wire 1 , clk~input_o $end
$var wire 1 - data_in~input_o $end
$var wire 1 . Selector0~0_combout $end
$var wire 1 / areset~input_o $end
$var wire 1 0 present_state.s0~q $end
$var wire 1 1 Selector1~0_combout $end
$var wire 1 2 present_state.s1~q $end
$var wire 1 3 next_state.s2~0_combout $end
$var wire 1 4 present_state.s2~q $end
$var wire 1 5 next_state.s3~0_combout $end
$var wire 1 6 present_state.s3~q $end
$var wire 1 7 next_state.s4~0_combout $end
$var wire 1 8 present_state.s4~q $end
$upscope $end
$upscope $end
$enddefinitions $end
#0
$dumpvars
1!
0"
0#
0$
0%
1&
x'
1(
1)
1*
0+
0,
0-
0.
1/
00
01
02
03
04
05
06
07
08
$end
#2500
1"
1,
#5000
0!
0"
0/
0,
#7500
1"
1,
#10000
1#
0"
1-
0,
11
1.
#12500
1"
1,
12
10
#15000
0"
0,
#17500
1"
1,
#20000
0#
0"
0-
0,
13
01
#22500
1"
1,
14
02
03
0.
#25000
1#
0"
1-
0,
15
1.
#27500
1"
1,
16
04
05
11
#30000
0#
0"
0-
0,
17
01
#32500
1"
1,
06
18
1+
1$
07
11
#35000
1#
0"
1-
0,
01
0.
#37500
1"
1,
00
08
0+
0$
11
1.
#40000
0#
0"
0-
0,
01
0.
#42500
1"
1,
#45000
1#
0"
1-
0,
11
1.
#47500
1"
1,
12
10
#50000
0"
0,
#52500
1"
1,
#55000
0#
0"
0-
0,
13
01
#57500
1"
1,
14
02
03
0.
#60000
1#
0"
1-
0,
15
1.
#62500
1"
1,
16
04
05
11
#65000
0"
0,
#67500
1"
1,
06
12
#70000
0#
0"
0-
0,
13
01
#72500
1"
1,
14
02
03
0.
#75000
1#
0"
1-
0,
15
1.
#77500
1"
1,
16
04
05
11
#80000
0#
0"
0-
0,
17
01
#82500
1"
1,
06
18
1+
1$
07
11
#85000
0"
0,
#87500
1"
1,
12
08
0+
0$
13
01
#90000
0"
0,
#92500
1"
1,
14
02
03
0.
#95000
0"
0,
#97500
1"
1,
04
00
#100000
1#
0"
1-
0,
11
1.
#102500
1"
1,
12
10
#105000
0#
0"
0-
0,
13
01
#107500
1"
1,
14
02
03
0.
#110000
1#
0"
1-
0,
15
1.
#112500
1"
1,
16
04
05
11
#115000
0"
0,
#117500
1"
1,
06
12
